Place,Name,Sex,Equipment,Division,BodyweightKg,WeightClassKg,Squat1Kg,Squat2Kg,Squat3Kg,Best3SquatKg,Bench1Kg,Bench2Kg,Bench3Kg,Best3BenchKg,Deadlift1Kg,Deadlift2Kg,Deadlift3Kg,Best3DeadliftKg,TotalKg,Event,BirthDate
1,Sarah Flynn,F,Raw,F-O,51.6,52,102.5,-107.5,-107.5,102.5,47.5,50,-52.5,50,115,122.5,-127.5,122.5,275,SBD,
1,Katie Coppinger,F,Raw,F-O,56.4,57,135,142.5,145,145,57.5,62.5,65,65,145,155,162.5,162.5,372.5,SBD,
2,Charis Kenna,F,Raw,F-O,54.3,57,87.5,92.5,-100,92.5,47.5,-52.5,-52.5,47.5,-125,125,130,130,270,SBD,
1,Bronagh Maguire,F,Raw,F-O,61.5,63,125,135,140,140,57.5,60,62.5,62.5,170,180,192.5,192.5,395,SBD,
2,Juliet Sweeney,F,Raw,F-O,62.2,63,120,127.5,135,135,65,70,75,75,140,150,-155,150,360,SBD,
3,Noreen McDermott,F,Raw,F-O,61,63,-107.5,107.5,115,115,70,-75,77.5,77.5,147.5,157.5,165,165,357.5,SBD,
4,Catherine Kilmartin,F,Raw,F-O,61.2,63,117.5,-125,125,125,57.5,65,-67.5,65,160,167.5,-172.5,167.5,357.5,SBD,
5,Mary Boyle,F,Raw,F-O,62.1,63,110,117.5,122.5,122.5,52.5,57.5,60,60,145,155,-165,155,337.5,SBD,
6,Holly O'Reilly,F,Raw,F-O,61.6,63,100,110,117.5,117.5,45,52.5,55,55,132.5,137.5,145,145,317.5,SBD,
7,Kellie McGrath,F,Raw,F-O,61.8,63,105,112.5,120,120,62.5,-65,-65,62.5,117.5,125,132.5,132.5,315,SBD,
8,Aisling McHugh,F,Raw,F-O,60.7,63,-75,75,80,80,42.5,45,47.5,47.5,107.5,112.5,117.5,117.5,245,SBD,
1,Ava Foley,F,Raw,F-O,68,69,107.5,115,-120,115,65,70,-72.5,70,-140,147.5,-157.5,147.5,332.5,SBD,
2,Richeal Ni Laoghaire,F,Raw,F-O,67.2,69,100,112.5,122.5,122.5,-50,52.5,57.5,57.5,120,135,142.5,142.5,322.5,SBD,
3,Louise O'Doherty,F,Raw,F-O,67.8,69,105,-112.5,112.5,112.5,67.5,72.5,75,75,117.5,127.5,-135,127.5,315,SBD,
4,Ciara Moore,F,Raw,F-O,68.1,69,97.5,-100,100,100,42.5,45,47.5,47.5,125,132.5,-140,132.5,280,SBD,
1,Kirsty McConachie,F,Raw,F-O,70.8,76,125,132.5,137.5,137.5,65,70,-72.5,70,147.5,157.5,-165,157.5,365,SBD,
2,Aisling Doherty-Madrigal,F,Raw,F-O,75.8,76,115,-120,120,120,70,75,-80,75,140,150,155,155,350,SBD,
3,Sinead Browne,F,Raw,F-O,71,76,80,85,90,90,50,55,57.5,57.5,95,100,105,105,252.5,SBD,
1,Louise Kenna,F,Raw,F-O,76.3,84,130,140,,140,77.5,90,,90,140,160,,160,390,SBD,
2,Katie Kavanagh,F,Raw,F-O,80.5,84,107.5,115,-120,115,65,70,75,75,130,137.5,147.5,147.5,337.5,SBD,
3,Aisling O'Hagan,F,Raw,F-O,83.9,84,110,-115,-115,110,57.5,62.5,67.5,67.5,112.5,117.5,120,120,297.5,SBD,
4,Niina Järvenkari,F,Raw,F-O,78.5,84,82.5,90,95,95,52.5,57.5,60,60,92.5,102.5,-110,102.5,257.5,SBD,
1,Clare Patterson,F,Raw,F-O,89.2,84+,-155,155,-162.5,155,117.5,122.5,-127.5,122.5,160,167.5,170,170,447.5,SBD,
2,Sandra Masterson,F,Raw,F-O,101.5,84+,130,137.5,-145,137.5,80,87.5,-90,87.5,167.5,-175,-175,167.5,392.5,SBD,
3,Emily Azzali,F,Raw,F-O,106.6,84+,-120,120,-127.5,120,52.5,57.5,60,60,120,130,135,135,315,SBD,
G,Liona Hanley,F,Raw,F-G,63.6,69,90,100,-105,100,60,65,-70,65,122.5,132.5,142.5,142.5,307.5,SBD,
1,Daniel O'Shaughnessy,M,Raw,M-O,65.1,66,170,180,185,185,107.5,115,120,120,190,202.5,210,210,515,SBD,
2,Daniel Nolan,M,Raw,M-O,65.3,66,160,-170,175,175,107.5,115,120,120,180,195,205,205,500,SBD,
3,Luke Kavanagh,M,Raw,M-O,61.2,66,75,82.5,90,90,70,77.5,80,80,105,112.5,120,120,290,SBD,
1,Adam Duane,M,Raw,M-O,68.6,74,200,210,220,220,125,135,-137.5,135,220,240,-245,240,595,SBD,
2,Jack Peters,M,Raw,M-O,73.2,74,182.5,-192.5,192.5,192.5,125,132.5,137.5,137.5,217.5,225,230,230,560,SBD,
3,Jack Ryan,M,Raw,M-O,73.2,74,175,185,-190,185,125,132.5,-137.5,132.5,215,225,232.5,232.5,550,SBD,
4,Alex Smale,M,Raw,M-O,73.7,74,172.5,177.5,-182.5,177.5,120,-127.5,-127.5,120,225,232.5,245,245,542.5,SBD,
5,Mapalo Mwenya,M,Raw,M-O,72.2,74,165,175,182.5,182.5,110,120,125,125,210,220,225,225,532.5,SBD,
6,Rian Collins,M,Raw,M-O,72.4,74,180,195,-200,195,-112.5,-112.5,112.5,112.5,200,215,-220,215,522.5,SBD,
7,Paul McLaren,M,Raw,M-O,72.6,74,165,175,182.5,182.5,85,90,-92.5,90,225,237.5,250,250,522.5,SBD,
8,Eoin Shanahan,M,Raw,M-O,70,74,165,175,180,180,107.5,115,117.5,117.5,172.5,185,197.5,197.5,495,SBD,
9,Sean Duggan,M,Raw,M-O,71.4,74,145,150,155,155,115,-122.5,-122.5,115,-195,200,210,210,480,SBD,
10,Manuel Del Vecchio,M,Raw,M-O,70.7,74,145,152.5,-157.5,152.5,115,125,127.5,127.5,160,170,180,180,460,SBD,
11,Oisin Bergin,M,Raw,M-O,72.9,74,125,140,-150,140,-82.5,90,-97.5,90,145,160,180,180,410,SBD,2001-11-08
12,Cian Whelan,M,Raw,M-O,70,74,110,120,125,125,75,80,85,85,145,157.5,170,170,380,SBD,
1,Jonathan Ferguson #1,M,Raw,M-O,82.8,83,-215,215,,215,130,135,-137.5,135,220,235,-252.5,235,585,SBD,
2,Scott Goggin,M,Raw,M-O,81.7,83,185,200,205,205,120,-127.5,-127.5,120,220,240,250,250,575,SBD,
3,Segun Balogun,M,Raw,M-O,81.3,83,160,172.5,180,180,115,127.5,135,135,205,220,235,235,550,SBD,
4,Liam Murray,M,Raw,M-O,81,83,175,185,192.5,192.5,95,102.5,-105,102.5,215,225,-232.5,225,520,SBD,
5,Eoghan Murphy,M,Raw,M-O,82.1,83,155,165,-172.5,165,100,107.5,112.5,112.5,195,210,220,220,497.5,SBD,
6,Andrew Mulcahy,M,Raw,M-O,80.1,83,150,157.5,165,165,100,105,110,110,180,192.5,205,205,480,SBD,
7,Aleksandr McNally,M,Raw,M-O,82.8,83,145,160,-175,160,97.5,-107.5,,97.5,150,165,180,180,437.5,SBD,
8,Mac Feble,M,Raw,M-O,80.9,83,130,140,150,150,65,70,75,75,155,167.5,180,180,405,SBD,
9,Gearid Matthews,M,Raw,M-O,81.2,83,117.5,127.5,135,135,77.5,85,87.5,87.5,147.5,160,170,170,392.5,SBD,
DQ,Cathal Mitchell,M,Raw,M-O,80.8,83,-125,-125,-125,,-115,,,,,,,,,SBD,
1,Matthew Henry #1,M,Raw,M-O,92.5,93,260,275,287.5,287.5,150,157.5,162.5,162.5,262.5,282.5,302.5,302.5,752.5,SBD,
2,Beck Phillips,M,Raw,M-O,90.7,93,210,220,-230,220,155,165,172.5,172.5,260,280,300,300,692.5,SBD,
3,Shane Storey,M,Raw,M-O,91.4,93,220,235,245,245,145,152.5,155,155,250,267.5,275,275,675,SBD,
4,Adam Loughnane,M,Raw,M-O,91.9,93,200,215,220,220,140,150,155,155,240,260,275,275,650,SBD,
5,Adam Phillips,M,Raw,M-O,92.5,93,220,240,-255,240,110,117.5,120,120,240,260,270,270,630,SBD,
6,Denis Semenov,M,Raw,M-O,89.2,93,185,195,205,205,132.5,137.5,-140,137.5,250,265,-272.5,265,607.5,SBD,
7,Daniel Hickey,M,Raw,M-O,91.9,93,200,215,220,220,120,125,-127.5,125,240,255,-262.5,255,600,SBD,
8,Adam Joy,M,Raw,M-O,87.3,93,205,215,220,220,132.5,140,145,145,205,217.5,225,225,590,SBD,
9,Gavin Butler,M,Raw,M-O,88.9,93,185,-195,200,200,110,117.5,-122.5,117.5,250,270,-282.5,270,587.5,SBD,
10,Cormac Dagg,M,Raw,M-O,85.3,93,190,200,207.5,207.5,112.5,117.5,-122.5,117.5,210,230,240,240,565,SBD,
11,Daniel Nolan,M,Raw,M-O,89.6,93,180,190,200,200,110,-115,115,115,240,250,-260,250,565,SBD,
12,Eoin Fagan,M,Raw,M-O,89,93,180,185,-190,185,105,112.5,-117.5,112.5,210,222.5,230,230,527.5,SBD,
13,Aaron Ritchie,M,Raw,M-O,91,93,152.5,165,170,170,97.5,-105,105,105,230,245,252.5,252.5,527.5,SBD,
14,David Kelly,M,Raw,M-O,90.9,93,155,165,170,170,85,95,-100,95,175,185,190,190,455,SBD,
1,Ryan McCann #2,M,Raw,M-O,104.1,105,235,252.5,260,260,145,157.5,160,160,282.5,295,300,300,720,SBD,
2,Jack Skelton,M,Raw,M-O,103.4,105,210,225,235,235,140,150,155,155,245,260,270,270,660,SBD,
3,James Nugent,M,Raw,M-O,96.7,105,-230,230,-245,230,130,135,137.5,137.5,247.5,260,265,265,632.5,SBD,
4,Luke Kelly #1,M,Raw,M-O,93.1,105,215,225,232.5,232.5,-125,-125,125,125,235,255,-265,255,612.5,SBD,
5,David Brennan,M,Raw,M-O,99.7,105,185,195,205,205,120,127.5,132.5,132.5,240,260,275,275,612.5,SBD,
6,Jack Cowap,M,Raw,M-O,102.5,105,185,200,215,215,157.5,165,-172.5,165,190,205,220,220,600,SBD,
7,Rommi Shaul,M,Raw,M-O,104.2,105,202.5,-212.5,212.5,212.5,125,130,135,135,202.5,215,222.5,222.5,570,SBD,
8,Dawid Kaczor,M,Raw,M-O,98.6,105,180,190,200,200,115,122.5,-130,122.5,210,225,230,230,552.5,SBD,
9,Naoise Walsh,M,Raw,M-O,104,105,180,190,-200,190,90,100,105,105,220,230,250,250,545,SBD,
10,Sean Mulholland,M,Raw,M-O,102.1,105,165,177.5,182.5,182.5,115,125,-127.5,125,215,230,-235,230,537.5,SBD,
11,Lee Tierney,M,Raw,M-O,97.1,105,155,165,170,170,80,87.5,92.5,92.5,162.5,175,187.5,187.5,450,SBD,
12,Michael Dunne,M,Raw,M-O,100.1,105,130,135,140,140,95,102.5,107.5,107.5,175,190,-195,190,437.5,SBD,
1,Ger Buckley,M,Raw,M-O,118,120,240,257.5,270,270,165,175,180,180,260,290,302.5,302.5,752.5,SBD,
2,Gavin Keegan,M,Raw,M-O,110.5,120,205,217.5,222.5,222.5,117.5,125,130,130,215,227.5,240,240,592.5,SBD,
3,Stephen Shine,M,Raw,M-O,112.2,120,225,-235,-235,225,130,140,-142.5,140,185,200,210,210,575,SBD,
DQ,Thomas Daly,M,Raw,M-O,117.1,120,230,240,-245,240,,,,,,,,,,SBD,
1,Kevin Letford,M,Raw,M-O,130,120+,245,260,272.5,272.5,140,147.5,152.5,152.5,240,257.5,-272.5,257.5,682.5,SBD,
2,Ben Harrison,M,Raw,M-O,140.2,120+,220,235,242.5,242.5,165,172.5,175,175,220,235,240,240,657.5,SBD,
3,Paul Hearne,M,Raw,M-O,129,120+,230,240,247.5,247.5,150,155,160,160,240,-250,-250,240,647.5,SBD,
