WeightClassKg,Name,Division,Sex,Best3SquatKg,Best3BenchKg,Best3DeadliftKg,TotalKg,Event,Equipment,Place
,C. Bloom,Novice,F,,,,335,SBD,Single-ply,1
,C. Taylor,Novice,F,,,,265,SBD,Single-ply,2
,Gina Dipietro,Novice,F,,,,275,SBD,Single-ply,3
,M. Krivdo,Novice,F,,,,265,SBD,Single-ply,4
,D. Lang,Novice,F,,,,225,SBD,Single-ply,5
,A. Josker,Novice,F,,,,230,SBD,Single-ply,6
,C. Lorenzen,Novice,F,,,,190,SBD,Single-ply,7
,S. Campanella,Novice,F,,,,175,SBD,Single-ply,8
,N. Belliveau,Open,F,,,,380,SBD,Single-ply,1
,J. Harrell,Open,F,,,,492.5,SBD,Single-ply,2
,A. McElroy,Open,F,,,,507.5,SBD,Single-ply,3
52,G. Kanamoto,Novice,M,,,,292.5,SBD,Single-ply,1
56,S. Graham,Novice,M,,,,410,SBD,Single-ply,1
60,E. Arde,Novice,M,,,,412.5,SBD,Single-ply,1
60,D. Silva,Novice,M,,,,410,SBD,Single-ply,2
60,J. Hughes,Novice,M,,,,367.5,SBD,Single-ply,3
67.5,G. Ramirez,Novice,M,,,,485,SBD,Single-ply,1
67.5,G. Morikawa,Novice,M,,,,440,SBD,Single-ply,2
67.5,D. Butler,Novice,M,,,,440,SBD,Single-ply,3
67.5,R. Baham,Novice,M,,,,432.5,SBD,Single-ply,4
67.5,R. Benitez,Novice,M,,,,427.5,SBD,Single-ply,5
67.5,B. Tralongo,Novice,M,,,,385,SBD,Single-ply,6
67.5,F. Fleet,Novice,M,,,,322.5,SBD,Single-ply,7
67.5,J. Anderson,Novice,M,,,,,SBD,Single-ply,DQ
67.5,S. Hampton,Novice,M,,,,,SBD,Single-ply,DQ
67.5,R. Kanamoto,Guest,M,,,,490,SBD,Single-ply,G
75,A. Trejo,Novice,M,,,,530,SBD,Single-ply,1
75,J. Jimenez,Novice,M,,,,492.5,SBD,Single-ply,2
75,D. DiLorenzo,Novice,M,,,,480,SBD,Single-ply,3
75,C. Hoskins,Novice,M,,,,465,SBD,Single-ply,4
75,R. Chavira,Novice,M,,,,457.5,SBD,Single-ply,5
75,P. Baca,Novice,M,,,,437.5,SBD,Single-ply,6
75,A. Piscopo,Novice,M,,,,390,SBD,Single-ply,7
75,T. Luevano,Novice,M,,,,,SBD,Single-ply,DQ
75,P. Waterman,Novice,M,,,,,SBD,Single-ply,DQ
82.5,K. Akrey,Novice,M,,,,600,SBD,Single-ply,1
82.5,J. Flores,Novice,M,,,,582.5,SBD,Single-ply,2
82.5,E. Glynn,Novice,M,,,,570,SBD,Single-ply,3
82.5,B. Kim,Novice,M,,,,552.5,SBD,Single-ply,4
82.5,B. Bush,Novice,M,,,,507.5,SBD,Single-ply,5
82.5,L. Davenport,Novice,M,,,,505,SBD,Single-ply,6
82.5,R. Sogliuzzo,Novice,M,,,,495,SBD,Single-ply,7
82.5,J. Wilson,Novice,M,,,,405,SBD,Single-ply,8
82.5,D. Cohen,Novice,M,,,,,SBD,Single-ply,DQ
82.5,D. Casey,Novice,M,,,,,SBD,Single-ply,DQ
90,N. Burich,Novice,M,,,,585,SBD,Single-ply,1
90,M. Willoughby,Novice,M,,,,580,SBD,Single-ply,2
90,C. Kostas,Novice,M,,,,565,SBD,Single-ply,3
90,J. Daniele,Novice,M,,,,555,SBD,Single-ply,4
90,T. DiMeglio,Novice,M,,,,555,SBD,Single-ply,5
90,G. Manly,Novice,M,,,,487.5,SBD,Single-ply,6
90,E. Harrison,Novice,M,,,,465,SBD,Single-ply,7
90,R. Bell,Novice,M,,,,465,SBD,Single-ply,8
90,A. Zummo,Novice,M,,,,452.5,SBD,Single-ply,9
90,T. Robertson,Novice,M,,,,450,SBD,Single-ply,10
90,T. Rezai,Novice,M,,,,422.5,SBD,Single-ply,11
90,F. Santoya,Novice,M,,,,,SBD,Single-ply,DQ
90,L. Villaruz,Novice,M,,,,,SBD,Single-ply,DQ
100,D. Josker,Novice,M,,,,682.5,SBD,Single-ply,1
100,L. Luke,Novice,M,,,,670,SBD,Single-ply,2
100,B. Roller,Novice,M,,,,667.5,SBD,Single-ply,3
100,A. Haro,Novice,M,,,,660,SBD,Single-ply,4
100,K. Oliver,Novice,M,,,,652.5,SBD,Single-ply,5
100,Maximovich,Novice,M,,,,615,SBD,Single-ply,6
100,B. Pendleton,Novice,M,,,,532.5,SBD,Single-ply,7
100,B. Bishop,Novice,M,,,,517.5,SBD,Single-ply,8
100,A. Quintana,Novice,M,,,,507.5,SBD,Single-ply,9
100,J. Forth,Novice,M,,,,505,SBD,Single-ply,10
100,D. Gaither,Novice,M,,,,432.5,SBD,Single-ply,11
100,J. Wallace,Novice,M,,,,,SBD,Single-ply,DQ
100,D. Mazorra,Novice,M,,,,,SBD,Single-ply,DQ
100,K. Laird,Guest,M,,,,695,SBD,Single-ply,G
110,W. Jackson,Novice,M,,,,720,SBD,Single-ply,1
110,T. Gilman,Novice,M,,,,702.5,SBD,Single-ply,2
110,J. Toliver,Novice,M,,,,675,SBD,Single-ply,3
110,B. Weaver,Novice,M,,,,675,SBD,Single-ply,4
110,R. Entrican,Novice,M,,,,577.5,SBD,Single-ply,5
110,M. McNamara,Novice,M,,,,557.5,SBD,Single-ply,6
110,S. Finley,Novice,M,,,,510,SBD,Single-ply,7
110,G. Strohl,Novice,M,,,,,SBD,Single-ply,DQ
110,G. Ogden,Novice,M,,,,,SBD,Single-ply,DQ
125,B. Stoner,Novice,M,,,,697.5,SBD,Single-ply,1
125,R. Thomson,Novice,M,,,,630,SBD,Single-ply,2
125,G. Davis,Novice,M,,,,547.5,SBD,Single-ply,3
125+,P. Amschler,Novice,M,,,,387.5,SBD,Single-ply,1
