Division,WeightClassKg,Place,Name,Team,BodyweightKg,Best3SquatKg,Best3BenchKg,Best3DeadliftKg,TotalKg,Equipment,Event,Sex,BirthDate
Boys,51.71,1,Justin Chapa,Edinburg Vela,49.44,188.24,115.67,206.38,510.29,Single-ply,SBD,M,
Boys,51.71,2,Felipe Garza,McAllen,50.89,167.83,124.74,181.44,474,Single-ply,SBD,M,
Boys,51.71,3,Jay Vasquez,Weslaco East,51.71,183.7,106.59,176.9,467.2,Single-ply,SBD,M,
Boys,51.71,4,Deandre Moody,Donna North,50.17,174.63,108.86,151.95,435.45,Single-ply,SBD,M,
Boys,51.71,5,Jacob Martinez,Donna North,51.53,167.83,74.84,176.9,419.57,Single-ply,SBD,M,
Boys,51.71,6,Erik Orta,Victoria West,50.62,158.76,88.45,163.29,410.5,Single-ply,SBD,M,
Boys,51.71,7,Ethan Hernandez,Harlingen South,51.26,165.56,90.72,154.22,410.5,Single-ply,SBD,M,
Boys,51.71,8,Kody Estes,Donna,50.53,147.42,74.84,165.56,387.82,Single-ply,SBD,M,
Boys,51.71,9,Dante Silva,Mission Sharyland,51.07,145.15,83.91,156.49,385.55,Single-ply,SBD,M,
Boys,51.71,10,Mark Ochoa,Gregory-Portland,50.26,136.08,83.91,154.22,374.21,Single-ply,SBD,M,
Boys,51.71,11,John Paul Acosta,Victoria West,50.89,133.81,83.91,156.49,374.21,Single-ply,SBD,M,
Boys,51.71,12,Benigno Garcia,Donna,51.71,127.01,86.18,154.22,367.41,Single-ply,SBD,M,
Boys,55.79,1,Louie Cavazos,Donna North,55.61,201.85,129.27,199.58,530.7,Single-ply,SBD,M,
Boys,55.79,2,Nate Martinez #2,Weslaco East,55.79,192.78,117.93,192.78,503.49,Single-ply,SBD,M,
Boys,55.79,3,Joe Hernandez #3,Los Fresnos,54.61,183.7,120.2,181.44,485.34,Single-ply,SBD,M,
Boys,55.79,4,Jorge Martinez,Los Fresnos,55.07,192.78,90.72,201.85,485.34,Single-ply,SBD,M,
Boys,55.79,5,Luis Garcia #9,Sharyland Pioneer,54.61,176.9,92.99,197.31,467.2,Single-ply,SBD,M,
Boys,55.79,6,Thomas Sandoval,Los Fresnos,54.79,174.63,104.33,185.97,464.93,Single-ply,SBD,M,
Boys,55.79,7,Shiv Ranchhod,Gregory-Portland,54.61,170.1,90.72,181.44,442.25,Single-ply,SBD,M,
Boys,55.79,8,Josh Perez,Los Fresnos,54.79,172.37,92.99,165.56,430.91,Single-ply,SBD,M,
Boys,55.79,9,Matthew Mancias,Brownsville Hanna,55.52,147.42,90.72,172.37,410.5,Single-ply,SBD,M,
Boys,55.79,10,Alex Montemayor,Mission Sharyland,55.61,158.76,92.99,136.08,387.82,Single-ply,SBD,M,
Boys,55.79,11,Trystan Rojas,Edcouch-Elsa,55.79,149.69,79.38,154.22,383.29,Single-ply,SBD,M,
Boys,55.79,NS,Angel Rivera,McAllen Memorial,,,,,,Single-ply,SBD,M,
Boys,55.79,DQ,Tyler Martinez #2,Edcouch-Elsa,55.61,,,,,Single-ply,SBD,M,
Boys,59.87,1,Gabriel Garza #2,Brownsville Lopez,59.87,188.24,136.08,206.38,530.7,Single-ply,SBD,M,
Boys,59.87,2,Ceyth Grevey,Victoria East,58.97,204.12,111.13,201.85,517.1,Single-ply,SBD,M,
Boys,59.87,3,Francisco Villarreal,Laredo Nixon,59.6,195.04,122.47,195.04,512.56,Single-ply,SBD,M,
Boys,59.87,4,Michael Morgan,PSJA Memorial,59.6,185.97,136.08,176.9,498.95,Single-ply,SBD,M,
Boys,59.87,5,Eric Gonzalez #2,Weslaco,59.87,192.78,102.06,190.51,485.34,Single-ply,SBD,M,
Boys,59.87,6,Jason Duarte,Weslaco,59.33,190.51,104.33,188.24,483.08,Single-ply,SBD,M,
Boys,59.87,7,Jacob Solis,PSJA,58.33,188.24,104.33,183.7,476.27,Single-ply,SBD,M,
Boys,59.87,8,Ulises Enriquez,Mercedes,58.88,167.83,97.52,190.51,455.86,Single-ply,SBD,M,
Boys,59.87,NS,Nolan Raya,Laredo United South,,,,,,Single-ply,SBD,M,
Boys,59.87,DQ,Matthew Elizondo,Harlingen,59.69,,,,,Single-ply,SBD,M,
Boys,59.87,DQ,Gabriel Andrade,Brownsville Rivera,59.78,,,,,Single-ply,SBD,M,
Boys,59.87,DQ,Anthony Ayala,Brownsville Veterans Memorial,59.24,,,,,Single-ply,SBD,M,
Boys,59.87,DQ,Isaac Lozano,Roma,58.97,,,,,Single-ply,SBD,M,
Boys,67.13,1,Ever Crispin,Edcouch-Elsa,66.22,249.48,154.22,242.67,646.37,Single-ply,SBD,M,
Boys,67.13,2,Nick Moreno,La Joya Juarez-Lincoln,66.77,240.4,133.81,213.19,587.4,Single-ply,SBD,M,
Boys,67.13,3,Marcus Saenz,Weslaco,66.68,240.4,136.08,206.38,582.87,Single-ply,SBD,M,
Boys,67.13,4,Dylan Ybarra,San Benito,66.04,215.46,142.88,201.85,560.19,Single-ply,SBD,M,
Boys,67.13,5,Kyle Yanez,Edinburg Vela,67.13,226.8,120.2,206.38,553.38,Single-ply,SBD,M,
Boys,67.13,6,Tyler Rosales,PSJA North,66.04,215.46,127.01,208.65,551.11,Single-ply,SBD,M,
Boys,67.13,7,Gilbert Garcia,Brownsville Hanna,64.23,213.19,120.2,215.46,548.85,Single-ply,SBD,M,
Boys,67.13,8,Isaiah Perales,Harlingen,66.41,213.19,131.54,204.12,548.85,Single-ply,SBD,M,
Boys,67.13,9,Isaias Salinas,McAllen Memorial,67.13,197.31,124.74,226.8,548.85,Single-ply,SBD,M,
Boys,67.13,10,Evan Zamora,Weslaco,66.13,215.46,111.13,219.99,546.58,Single-ply,SBD,M,
Boys,67.13,11,Jesus Pardo,Brownsville Rivera,65.5,219.99,120.2,204.12,544.31,Single-ply,SBD,M,
Boys,67.13,12,Israel Ramos,Brownsville Pace,66.68,213.19,117.93,213.19,544.31,Single-ply,SBD,M,
Boys,74.84,1,Ramiro Yanez,PSJA,72.76,285.76,140.61,265.35,691.73,Single-ply,SBD,M,
Boys,74.84,2,Allan Benavides,Edinburg North,74.21,263.08,140.61,238.14,641.83,Single-ply,SBD,M,
Boys,74.84,3,Angel Cantu,La Joya Palmview,74.84,258.55,149.69,226.8,635.03,Single-ply,SBD,M,
Boys,74.84,4,Marckopolo Cavazos,Mission Veterans Memorial,73.57,249.48,124.74,240.4,614.62,Single-ply,SBD,M,
Boys,74.84,5,Justin Rosas,Brownsville Veterans Memorial,73.94,240.4,151.95,215.46,607.81,Single-ply,SBD,M,
Boys,74.84,6,Harley Rios,Weslaco,72.67,238.14,133.81,231.33,603.28,Single-ply,SBD,M,
Boys,74.84,7,Devin Aguilar,Edinburg North,74.75,233.6,142.88,219.99,596.47,Single-ply,SBD,M,
Boys,74.84,8,Jacob Broussard,Brownsville Hanna,74.75,238.14,154.22,201.85,594.21,Single-ply,SBD,M,
Boys,74.84,9,Jonah Villareal,Edinburg Vela,74.12,238.14,124.74,226.8,589.67,Single-ply,SBD,M,
Boys,74.84,10,Jose E Hernandez,Brownsville Rivera,74.21,210.92,138.35,240.4,589.67,Single-ply,SBD,M,
Boys,74.84,DQ,Edgar Duran,PSJA North,71.58,,,,,Single-ply,SBD,M,
Boys,74.84,DQ,Jacob Olivarez,PSJA Memorial,71.67,,,,,Single-ply,SBD,M,
Boys,82.1,1,Sergio Lerma,Weslaco,81.28,317.51,147.42,297.1,762.04,Single-ply,SBD,M,
Boys,82.1,2,Josue Ceron,Los Fresnos,81.19,249.48,158.76,251.74,659.98,Single-ply,SBD,M,
Boys,82.1,3,Juan Saenz,Edinburg North,80.56,247.21,165.56,240.4,653.17,Single-ply,SBD,M,
Boys,82.1,4,Javier Ornelas,Mission Veterans Memorial,79.29,233.6,149.69,235.87,619.15,Single-ply,SBD,M,
Boys,82.1,5,Fidencio Ortega,La Joya Juarez-Lincoln,80.74,247.21,158.76,213.19,619.15,Single-ply,SBD,M,
Boys,82.1,6,Randal Delgado,Victoria East,77.56,263.08,129.27,219.99,612.35,Single-ply,SBD,M,
Boys,82.1,7,Daniel Martinez #24,Victoria East,80.83,256.28,138.35,217.72,612.35,Single-ply,SBD,M,
Boys,82.1,8,Izaac Parra,Harlingen South,81.65,244.94,140.61,226.8,612.35,Single-ply,SBD,M,
Boys,82.1,9,Othon Elizondo,Edinburg Economedes,80.92,238.14,124.74,238.14,601.01,Single-ply,SBD,M,
Boys,82.1,10,Johnathan Maldonado,Edinburg,80.2,231.33,158.76,197.31,587.4,Single-ply,SBD,M,
Boys,82.1,DQ,Luis De Hoyos,Mission Veterans Memorial,80.92,,,,,Single-ply,SBD,M,
Boys,82.1,DQ,Jael Bernal,PSJA,80.1,,,,,Single-ply,SBD,M,
Boys,89.81,1,Miguel Jimenez,Mercedes,89.81,319.78,151.95,278.96,750.7,Single-ply,SBD,M,
Boys,89.81,2,Seth Neibrandt,Victoria West,88.36,265.35,174.63,260.82,700.8,Single-ply,SBD,M,
Boys,89.81,3,John Vasquez,Edinburg Vela,87.45,251.74,151.95,256.28,659.98,Single-ply,SBD,M,
Boys,89.81,4,Jose Zavala,Weslaco East,88,238.14,161.03,260.82,659.98,Single-ply,SBD,M,
Boys,89.81,5,Bobby Flores,Edinburg,88.99,260.82,158.76,240.4,659.98,Single-ply,SBD,M,
Boys,89.81,6,Zeke Aguilar,Los Fresnos,88.36,251.74,163.29,242.67,657.71,Single-ply,SBD,M,
Boys,89.81,7,Zeek Cuadors,Mission,87.09,263.08,142.88,242.67,648.64,Single-ply,SBD,M,
Boys,89.81,8,Jose Cavazos,McAllen Rowe,89.18,260.82,142.88,231.33,635.03,Single-ply,SBD,M,
Boys,89.81,9,Sebastian Lozano,Brownsville Hanna,89.36,265.35,161.03,208.65,635.03,Single-ply,SBD,M,
Boys,89.81,10,Anthony Del Angel,Sharyland Pioneer,89.81,238.14,156.49,240.4,635.03,Single-ply,SBD,M,
Boys,89.81,11,Gerado Enriquez,Laredo Alexander,89.81,226.8,163.29,244.94,635.03,Single-ply,SBD,M,
Boys,89.81,12,Ray Pecina,La Joya Palmview,87,238.14,142.88,229.06,610.08,Single-ply,SBD,M,
Boys,89.81,NS,Robert Trevino,San Benito,,,,,,Single-ply,SBD,M,
Boys,99.79,1,Anthony Elvir,Los Fresnos,96.89,317.51,199.58,317.51,834.61,Single-ply,SBD,M,
Boys,99.79,2,Roan Galvan,Mercedes,96.16,317.51,183.7,247.21,748.43,Single-ply,SBD,M,
Boys,99.79,3,Yael Herrera,Edinburg,97.7,274.42,156.49,260.82,691.73,Single-ply,SBD,M,
Boys,99.79,4,Nathan Evans,Los Fresnos,98.25,260.82,158.76,249.48,669.05,Single-ply,SBD,M,
Boys,99.79,5,Santos Avalos,Brownsville Hanna,97.25,265.35,138.35,254.01,657.71,Single-ply,SBD,M,
Boys,99.79,6,Josue Moralez,Weslaco East,98.97,249.48,161.03,247.21,657.71,Single-ply,SBD,M,
Boys,99.79,7,Damian Diaz,Victoria West,97.16,272.16,131.54,238.14,641.83,Single-ply,SBD,M,
Boys,99.79,8,Jj Johnson,McAllen Memorial,99.61,267.62,136.08,217.72,621.42,Single-ply,SBD,M,
Boys,99.79,9,Gael Soto,Laredo United,99.52,238.14,170.1,195.04,603.28,Single-ply,SBD,M,
Boys,99.79,10,Javier Garcia #14,Donna North,97.52,226.8,142.88,226.8,596.47,Single-ply,SBD,M,
Boys,99.79,DQ,Christian Hernandez,Mission,98.07,,,,,Single-ply,SBD,M,
Boys,99.79,DQ,Isaac Sanchez,PSJA,96.52,260.82,183.7,,,Single-ply,SBD,M,
Boys,109.77,1,Noe Castillo,Weslaco East,107.14,288.03,217.72,254.01,759.77,Single-ply,SBD,M,
Boys,109.77,2,Ryan Cain,Victoria East,103.78,328.85,149.69,274.42,752.96,Single-ply,SBD,M,
Boys,109.77,3,Justyn Esquivel,Edcouch-Elsa,108.41,285.76,195.04,249.48,730.28,Single-ply,SBD,M,
Boys,109.77,4,Ryan Creasy,McAllen Rowe,108.59,256.28,192.78,278.96,728.02,Single-ply,SBD,M,
Boys,109.77,5,Kelvin Flores,Weslaco East,109.77,267.62,188.24,260.82,716.68,Single-ply,SBD,M,
Boys,109.77,6,Mark Lara,Gregory-Portland,107.77,283.5,163.29,263.08,709.87,Single-ply,SBD,M,
Boys,109.77,7,Joseph Guerra,Edinburg Economedes,104.33,260.82,181.44,260.82,703.07,Single-ply,SBD,M,
Boys,109.77,8,Christoval Villarreal,McAllen,104.69,265.35,163.29,274.42,703.07,Single-ply,SBD,M,
Boys,109.77,9,Jesus Hernandez #5,Brownsville Rivera,106.05,267.62,190.51,235.87,694,Single-ply,SBD,M,
Boys,109.77,10,Nate Garcia,San Benito,109.13,258.55,138.35,278.96,675.85,Single-ply,SBD,M,
Boys,109.77,11,Isaac Gonzalez,Weslaco East,105.14,249.48,170.1,226.8,646.37,Single-ply,SBD,M,
Boys,109.77,NS,Daniel Ramirez #9,Los Fresnos,,,,,,Single-ply,SBD,M,
Boys,124.74,1,Dante Ramones,Edinburg North,122.92,310.71,204.12,251.74,766.57,Single-ply,SBD,M,
Boys,124.74,2,Carlos Rodriguez #13,McAllen Memorial,117.12,306.17,208.65,233.6,748.43,Single-ply,SBD,M,
Boys,124.74,3,Aiden Safford,Rio Grande City,120.84,260.82,183.7,274.42,718.94,Single-ply,SBD,M,
Boys,124.74,4,Anthony Garcia,PSJA North,121.74,306.17,176.9,226.8,709.87,Single-ply,SBD,M,
Boys,124.74,5,John Avila,Brownsville Hanna,124.65,301.64,158.76,249.48,709.87,Single-ply,SBD,M,
Boys,124.74,6,Edgar Otero,Donna North,115.85,299.37,167.83,235.87,703.07,Single-ply,SBD,M,
Boys,124.74,7,Jesus Garcia #11,Roma,115.67,272.16,165.56,222.26,659.98,Single-ply,SBD,M,
Boys,124.74,8,Abraham Lozano,Brownsville Rivera,122.65,265.35,140.61,231.33,637.3,Single-ply,SBD,M,
Boys,124.74,DQ,Kristian Jimenez,Laredo Alexander,123.2,294.84,215.46,,,Single-ply,SBD,M,
Boys,124.74,DQ,Abraham Villalon,Brownsville Porter,120.66,,,,,Single-ply,SBD,M,
Boys,124.74,DQ,Justin Sandoval,Edcouch-Elsa,123.38,306.17,,,,Single-ply,SBD,M,
Boys,124.74,DQ,Macario Martinez,Victoria East,121.02,290.3,161.03,,,Single-ply,SBD,M,
Boys,139.71,1,Matthew Ybarbo,Brownsville Rivera,134.08,294.84,195.04,265.35,755.23,Single-ply,SBD,M,
Boys,139.71,2,Jaime Palafox,Los Fresnos,136.26,301.64,183.7,258.55,743.89,Single-ply,SBD,M,
Boys,139.71,3,Abisai Tijerina,Edinburg Economedes,133.27,306.17,158.76,272.16,737.09,Single-ply,SBD,M,
Boys,139.71,4,Thomas Santillan,Weslaco,137.53,335.66,163.29,233.6,732.55,Single-ply,SBD,M,
Boys,139.71,5,Ray Holloman,Brownsville Veterans Memorial,129.55,308.44,170.1,247.21,725.75,Single-ply,SBD,M,
Boys,139.71,6,Oscar de la Cruz,PSJA Southwest,136.71,278.96,183.7,263.08,725.75,Single-ply,SBD,M,
Boys,139.71,7,Marco Gamez,Edinburg Vela,136.08,269.89,188.24,233.6,691.73,Single-ply,SBD,M,
Boys,139.71,8,Amadeo Sanchez,Edinburg,128.55,281.23,197.31,201.85,680.39,Single-ply,SBD,M,
Boys,139.71,9,Cooper Kliem,Victoria East,132.63,303.91,149.69,215.46,669.05,Single-ply,SBD,M,
Boys,139.71,10,Frank Medina,San Benito,133.72,254.01,149.69,235.87,639.57,Single-ply,SBD,M,
Boys,139.71,DQ,Anthony Huizar,Del Rio,129.09,,,,,Single-ply,SBD,M,
Boys,139.71,DQ,Deven Martinez,Edcouch-Elsa,138.62,,,,,Single-ply,SBD,M,
Boys,139.71+,1,Caleb Davis,Harlingen South,160.39,362.87,217.72,258.55,839.15,Single-ply,SBD,M,
Boys,139.71+,2,German Woo,Brownsville Hanna,145.88,340.19,167.83,249.48,757.5,Single-ply,SBD,M,
Boys,139.71+,3,Manny Torres,Laredo Cigarroa,144.61,319.78,165.56,263.08,748.43,Single-ply,SBD,M,
Boys,139.71+,4,Jamarion Owens,Mercedes,149.5,324.32,179.17,244.94,748.43,Single-ply,SBD,M,
Boys,139.71+,5,Isaias Garcia,La Joya Palmview,187.52,324.32,158.76,226.8,709.87,Single-ply,SBD,M,
Boys,139.71+,6,Ehud Mendez,Laredo Alexander,139.98,260.82,154.22,249.48,664.51,Single-ply,SBD,M,
Boys,139.71+,7,Julio Moreno,Rio Grande City,145.24,256.28,185.97,215.46,657.71,Single-ply,SBD,M,
Boys,139.71+,8,Martin Maldonado,Edcouch-Elsa,165.92,260.82,170.1,215.46,646.37,Single-ply,SBD,M,
Boys,139.71+,NS,Pedro Martinez,Edinburg Economedes,,,,,,Single-ply,SBD,M,
Boys,139.71+,DQ,Marcos De Ochoa,McAllen Memorial,151.14,328.85,,,,Single-ply,SBD,M,
Boys,139.71+,DQ,Dexter Delgado,Harlingen South,179.08,,,,,Single-ply,SBD,M,
Boys,139.71+,DQ,Juan Barrera,Edcouch-Elsa,171.82,281.23,,,,Single-ply,SBD,M,
